…
Here is some raw Songscope output:

``` r
# Convert Songscope output into WildTrax tags

readr::read_table("./CONI.txt")
#> # A tibble: 23 × 8
#>    X:\\WLNP\\2018\\01\\WLNP-CONI\\…¹ `00:00:09.446` `0.192`  `78` `20.7` `53.97`
#>    <chr>                             <time>           <dbl> <dbl>  <dbl>   <dbl>
#>  1 "X:\\WLNP\\2018\\01\\WLNP-CONI\\… 00'32"           0.192    75   23.3    56.0
#>  2 "X:\\WLNP\\2018\\01\\WLNP-CONI\\… 00'34"           0.205    77   27      53.2
#>  3 "X:\\WLNP\\2018\\01\\WLNP-CONI\\… 00'37"           0.218    69   23.1    54.2
#>  4 "X:\\WLNP\\2018\\01\\WLNP-CONI\\… 00'40"           0.269    67   36.1    50.1
#>  5 "X:\\WLNP\\2018\\01\\WLNP-CONI\\… 00'44"           0.269    69   26.4    60.7
#>  6 "X:\\WLNP\\2018\\01\\WLNP-CONI\\… 00'48"           0.218    73   25.8    50.8
#>  7 "X:\\WLNP\\2018\\01\\WLNP-CONI\\… 00'52"           0.371    71   63.8    50.4
#>  8 "X:\\WLNP\\2018\\01\\WLNP-CONI\\… 00'58"           0.256    63   33.1    54.2
#>  9 "X:\\WLNP\\2018\\01\\WLNP-CONI\\… 01'06"           0.422    73   64.9    52.2
#> 10 "X:\\WLNP\\2018\\01\\WLNP-CONI\\… 01'06"           0.333    68   36.2    55.1
#> # ℹ 13 more rows
#> # ℹ abbreviated name:
#> #   ¹​`X:\\WLNP\\2018\\01\\WLNP-CONI\\WLNP-CONI-001\\WLNP-CONI-001_20180720_203000.wav`
#> # ℹ 2 more variables: CONI_Boom2.0 <chr>, X8 <lgl>
```
…
