…
WildTrax also pre-formats ARU to point count (PC) data depending on the
type of analysis you wish to perform. See the [Boreal Avian Modelling
project](https://borealbirds.ca/) website and GitHub
[repositories](https://github.com/borealbirds) to find out more on
integration of avian point count and ARU data.

``` r
# As ARU format
my_report
#> # A tibble: 388 × 35
#>    organization project_id location  location_id location_buffer_m longitude
#>    <chr>             <int> <chr>           <int>             <dbl>     <dbl>
#>  1 BU                  620 CHPP-WP-1       94515                NA     -110.
#>  2 BU                  620 CHPP-WP-1       94515                NA     -110.
#>  3 BU                  620 CHPP-WP-1       94515                NA     -110.
#>  4 BU                  620 CHPP-WP-1       94515                NA     -110.
#>  5 BU                  620 CHPP-WP-1       94515                NA     -110.
#>  6 BU                  620 CHPP-WP-1       94515                NA     -110.
#>  7 BU                  620 CHPP-WP-1       94515                NA     -110.
#>  8 BU                  620 CHPP-WP-1       94515                NA     -110.
#>  9 BU                  620 CHPP-WP-1       94515                NA     -110.
#> 10 BU                  620 CHPP-WP-1       94515                NA     -110.
#> # ℹ 378 more rows
#> # ℹ 29 more variables: latitude <dbl>, equipment_make <chr>,
#> #   equipment_model <chr>, recording_id <dbl>, recording_date_time <dttm>,
#> #   task_id <dbl>, task_is_complete <lgl>, task_duration <dbl>,
#> #   task_method <chr>, species_code <chr>, species_common_name <chr>,
#> #   species_scientific_name <chr>, individual_order <int>, tag_id <int>,
#> #   abundance <chr>, vocalization <chr>, detection_time <dbl>, …
```
…
#>  1        31 "BU-Community - C…  1232 White-throated Spa… Zonotrichia albicollis
#>  2      1855 "CWS-ONT-Ontario …  1126 White-throated Spa… Zonotrichia albicollis
#>  3        41 "BU-Community - C…   829 White-throated Spa… Zonotrichia albicollis
#>  4      1070 "CWS-ONT-Ontario …   805 White-throated Spa… Zonotrichia albicollis
#>  5      3139 "CWS-ONT-Ontario …   601 White-throated Spa… Zonotrichia albicollis
#>  6       659 "CWS-ONT-Ontario …   528 White-throated Spa… Zonotrichia albicollis
#>  7      2821 "CWS-ONT-Ontario …   469 White-throated Spa… Zonotrichia albicollis
#>  8         1 "ABMI-Ecosystem H…   343 White-throated Spa… Zonotrichia albicollis
#>  9        19 "ABMI-Ecosystem H…   291 White-throated Spa… Zonotrichia albicollis
#> 10       142 "ABMI-Ecosystem H…   280 White-throated Spa… Zonotrichia albicollis
#> 11        NA ""                  8096 White-throated Spa… Zonotrichia albicollis
#> # ℹ abbreviated name: ¹​species_scientific_name
#> 
#> $`map-projects`
#> # A tibble: 11,654 × 4
#>    species_common_name    count longitude latitude
#>    <chr>                  <int>     <dbl>    <dbl>
#>  1 White-throated Sparrow     1     -125.     56.1
#>  2 White-throated Sparrow     1     -125.     56.1
#>  3 White-throated Sparrow     1     -125.     56.1
#>  4 White-throated Sparrow     1     -125.     56.1
#>  5 White-throated Sparrow     1     -125.     56.2
#>  6 White-throated Sparrow     1     -124.     55.6
#>  7 White-throated Sparrow     1     -124.     56.1
#>  8 White-throated Sparrow     1     -124.     56.1
#>  9 White-throated Sparrow     1     -124.     56.1
#> 10 White-throated Sparrow     1     -124.     56.1
#> # ℹ 11,644 more rows
```
…
