…
Let’s use a high threshold (0.8) on our example dataset to see if any
new species are detected. We can use the resolution argument to specify
whether we want to look for new species in each task, recording,
location, or in the entire project. Let’s pretend we’re interested in
site-specific species richness and use the task argument.

``` r
new <- wt_additional_species(data, remove_species = TRUE, threshold = 0.8, resolution="task")

new
```

    ## # A tibble: 98 × 14
    ##    location_id recording_id task_id species_common_name  confidence organization
    ##          <int>        <dbl>   <dbl> <chr>                     <dbl> <chr>       
    ##  1       89970       211641  180880 Belted Kingfisher         0.906 BU          
    ##  2       89970       211641  180880 Chestnut-backed Chi…      0.853 BU          
    ##  3       89970       211641  180880 Dusky Flycatcher          0.961 BU          
    ##  4       89970       211641  180880 Red-winged Blackbird      0.957 BU          
    ##  5       89970       211641  180880 Song Sparrow              0.931 BU          
    ##  6       89970       211641  180880 Townsend's Warbler        0.864 BU          
    ##  7       89970       211643  180882 Northern House Wren       0.884 BU          
    ##  8       89970       211649  180888 Mountain Chickadee        0.803 BU          
    ##  9       89970       211649  180888 Sharp-shinned Hawk        0.856 BU          
    ## 10       89972       211642  180881 Northern House Wren       0.977 BU          
    ## # ℹ 88 more rows
    ## # ℹ 8 more variables: version <chr>, location <chr>,
    ## #   recording_date_time <dttm>, recording_length <dbl>, scientific_name <chr>,
    ## #   species_code <chr>, ai_detection_time <dbl>,
    ## #   is_species_allowed_in_project <lgl>

There are potentially 98 new species detections in our dataset. In this
case, you can then format the output of these results to fit with tag
sync and either check the tasks individually, or synchronize the tags
and check them via species verification.

``` r
wt_additional_species(data, remove_species = TRUE, threshold = 0.8, resolution="task", format_to_tags = T)
```

    ## # A tibble: 98 × 17
    ##    location  recording_date_time task_duration task_method observer species_code
    ##    <chr>     <dttm>                      <dbl> <chr>       <chr>    <chr>       
    ##  1 CHPP-WP-5 2021-07-07 06:40:00           180 1SPT        Not Ass… BEKI        
    ##  2 CHPP-WP-5 2021-07-07 06:40:00           180 1SPT        Not Ass… CBCH        
    ##  3 CHPP-WP-5 2021-07-07 06:40:00           180 1SPT        Not Ass… DUFL        
    ##  4 CHPP-WP-5 2021-07-07 06:40:00           180 1SPT        Not Ass… RWBL        
    ##  5 CHPP-WP-5 2021-07-07 06:40:00           180 1SPT        Not Ass… SOSP        
    ##  6 CHPP-WP-5 2021-07-07 06:40:00           180 1SPT        Not Ass… TOWA        
    ##  7 CHPP-WP-5 2021-07-06 05:20:00           180 1SPT        Not Ass… NHWR        
    ##  8 CHPP-WP-5 2021-07-04 22:00:00           180 1SPT        Not Ass… MOCH        
    ##  9 CHPP-WP-5 2021-07-04 22:00:00           180 1SPT        Not Ass… SSHA        
    ## 10 CHPP-WP-6 2021-07-04 05:00:00           180 1SPT        Not Ass… NHWR        
    ## # ℹ 88 more rows
    ## # ℹ 11 more variables: individual_number <int>, vocalization <chr>,
    ## #   abundance <dbl>, tag_start_time <dbl>, tag_duration <chr>,
    ## #   min_tag_freq <chr>, max_tag_freq <chr>, species_individual_comments <chr>,
    ## #   tag_is_hidden_for_verification <lgl>, recording_sample_frequency <dbl>,
    ## #   internal_tag_id <chr>
…
